country_code,capital,continent,currency_name
AND,Andorra la Vella,EU,Euro
ARE,Abu Dhabi,AS,Dirham
AFG,Kabul,AS,Afghani
ATG,St. John's,NA,Dollar
AIA,The Valley,NA,Dollar
ALB,Tirana,EU,Lek
ARM,Yerevan,AS,Dram
AGO,Luanda,AF,Kwanza
ATA,,AN,
ARG,Buenos Aires,SA,Peso
ASM,Pago Pago,OC,Dollar
AUT,Vienna,EU,Euro
AUS,Canberra,OC,Dollar
ABW,Oranjestad,NA,Guilder
ALA,Mariehamn,EU,Euro
AZE,Baku,AS,Manat
BIH,Sarajevo,EU,Marka
BRB,Bridgetown,NA,Dollar
BGD,Dhaka,AS,Taka
BEL,Brussels,EU,Euro
BFA,Ouagadougou,AF,Franc
BGR,Sofia,EU,Lev
BHR,Manama,AS,Dinar
BDI,Bujumbura,AF,Franc
BEN,Porto-Novo,AF,Franc
BLM,Gustavia,NA,Euro
BMU,Hamilton,NA,Dollar
BRN,Bandar Seri Begawan,AS,Dollar
BOL,Sucre,SA,Boliviano
BES,,NA,Dollar
BRA,Brasilia,SA,Real
BHS,Nassau,NA,Dollar
BTN,Thimphu,AS,Ngultrum
BVT,,AN,Krone
BWA,Gaborone,AF,Pula
BLR,Minsk,EU,Ruble
BLZ,Belmopan,NA,Dollar
CAN,Ottawa,NA,Dollar
CCK,West Island,AS,Dollar
COD,Kinshasa,AF,Franc
CAF,Bangui,AF,Franc
COG,Brazzaville,AF,Franc
CHE,Bern,EU,Franc
CIV,Yamoussoukro,AF,Franc
COK,Avarua,OC,Dollar
CHL,Santiago,SA,Peso
CMR,Yaounde,AF,Franc
CHN,Beijing,AS,Yuan Renminbi
COL,Bogota,SA,Peso
CRI,San Jose,NA,Colon
CUB,Havana,NA,Peso
CPV,Praia,AF,Escudo
CUW, Willemstad,NA,Guilder
CXR,Flying Fish Cove,AS,Dollar
CYP,Nicosia,EU,Euro
CZE,Prague,EU,Koruna
DEU,Berlin,EU,Euro
DJI,Djibouti,AF,Franc
DNK,Copenhagen,EU,Krone
DMA,Roseau,NA,Dollar
DOM,Santo Domingo,NA,Peso
DZA,Algiers,AF,Dinar
ECU,Quito,SA,Dollar
EST,Tallinn,EU,Euro
EGY,Cairo,AF,Pound
ESH,El-Aaiun,AF,Dirham
ERI,Asmara,AF,Nakfa
ESP,Madrid,EU,Euro
ETH,Addis Ababa,AF,Birr
FIN,Helsinki,EU,Euro
FJI,Suva,OC,Dollar
FLK,Stanley,SA,Pound
FSM,Palikir,OC,Dollar
FRO,Torshavn,EU,Krone
FRA,Paris,EU,Euro
GAB,Libreville,AF,Franc
GBR,London,EU,Pound
GRD,St. George's,NA,Dollar
GEO,Tbilisi,AS,Lari
GUF,Cayenne,SA,Euro
GGY,St Peter Port,EU,Pound
GHA,Accra,AF,Cedi
GIB,Gibraltar,EU,Pound
GRL,Nuuk,NA,Krone
GMB,Banjul,AF,Dalasi
GIN,Conakry,AF,Franc
GLP,Basse-Terre,NA,Euro
GNQ,Malabo,AF,Franc
GRC,Athens,EU,Euro
SGS,Grytviken,AN,Pound
GTM,Guatemala City,NA,Quetzal
GUM,Hagatna,OC,Dollar
GNB,Bissau,AF,Franc
GUY,Georgetown,SA,Dollar
HKG,Hong Kong,AS,Dollar
HMD,,AN,Dollar
HND,Tegucigalpa,NA,Lempira
HRV,Zagreb,EU,Kuna
HTI,Port-au-Prince,NA,Gourde
HUN,Budapest,EU,Forint
IDN,Jakarta,AS,Rupiah
IRL,Dublin,EU,Euro
ISR,Jerusalem,AS,Shekel
IMN,Douglas,EU,Pound
IND,New Delhi,AS,Rupee
IOT,Diego Garcia,AS,Dollar
IRQ,Baghdad,AS,Dinar
IRN,Tehran,AS,Rial
ISL,Reykjavik,EU,Krona
ITA,Rome,EU,Euro
JEY,Saint Helier,EU,Pound
JAM,Kingston,NA,Dollar
JOR,Amman,AS,Dinar
JPN,Tokyo,AS,Yen
KEN,Nairobi,AF,Shilling
KGZ,Bishkek,AS,Som
KHM,Phnom Penh,AS,Riels
KIR,Tarawa,OC,Dollar
COM,Moroni,AF,Franc
KNA,Basseterre,NA,Dollar
PRK,Pyongyang,AS,Won
KOR,Seoul,AS,Won
XKX,Pristina,EU,Euro
KWT,Kuwait City,AS,Dinar
CYM,George Town,NA,Dollar
KAZ,Astana,AS,Tenge
LAO,Vientiane,AS,Kip
LBN,Beirut,AS,Pound
LCA,Castries,NA,Dollar
LIE,Vaduz,EU,Franc
LKA,Colombo,AS,Rupee
LBR,Monrovia,AF,Dollar
LSO,Maseru,AF,Loti
LTU,Vilnius,EU,Euro
LUX,Luxembourg,EU,Euro
LVA,Riga,EU,Euro
LBY,Tripoli,AF,Dinar
MAR,Rabat,AF,Dirham
MCO,Monaco,EU,Euro
MDA,Chisinau,EU,Leu
MNE,Podgorica,EU,Euro
MAF,Marigot,NA,Euro
MDG,Antananarivo,AF,Ariary
MHL,Majuro,OC,Dollar
MKD,Skopje,EU,Denar
MLI,Bamako,AF,Franc
MMR,Nay Pyi Taw,AS,Kyat
MNG,Ulan Bator,AS,Tugrik
